{
    "contact": {
        "picture":"http://www.gravatar.com/avatar/5b83fe5e2d7fabcb1a6f77bb503d5f0a.png",
        "address": "1615 Buckhorn Cir",
        "bio": "Software Developer specializing in Web and Mobile Development, User Interface/User Experience Design, and Infrastructure Programming. Strong focus on simplicity of design.  \nI have become fluent in the following technologies: Javascript, jQuery, LessCSS, HTML5, CSS3, Apache, Perl, SOAP and REST Web Services.  \nI also find it very easy to learn new languages. I've been programming long enough that new languages do not intimidate me.  \nI've also had a lot of experience with different software methodologies, including Waterfall and Agile development. I've worked on multiple teams enjoy working and collaborating with others on software designs and implementations. I am also competent to work independently to meet deadlines.  \nWhen creating great interfaces, often it is what you decide to omit that leads to the most usable designs.",
        "city": "Conway",
        "email": "jdorseydesign@gmail.com",
        "firstName": "James",
        "lastName": "Dorsey",
        "middleName": "Bart",
        "phone": [
            {
                "number": "(870) 941-6412",
                "type": "mobile"
            },
            {
                "number": "(501) 209-3686",
                "type": "Google Voice"
            }
        ],
        "state": "AR",
        "website": "http://bartdorsey.com",
        "zip": "72034"
    },
    "education": [],
    "experience": [
        {
            "current": true,
            "description": "Designed and Implemented a Responsive website for http://skepticon.org. Created a wordpress theme, and custom plugins to display speaker bios and videos.",
            "organization": "Skepticon.org",
            "startDate": {
                "month": "November",
                "year": 2012
            },
            "title": "Freelance Web Developer",
            "website": "http://skepticon.org"
        },
        {
            "current": true,
            "description": "Built and maintain a suite of websites for Elder Outreach, a Long Term Care non-profit. Designed Wordpress Themes, maintained hosting and DNS, and built custom website functionality.",
            "organization": "Elder Outreach",
            "startDate": {
                "year": 2009
            },
            "title": "Freelance Web Developer",
            "website": "http://elderoutreach.org"
        },
        {
            "current": false,
            "description": "Began my career at Acxiom as a Systems Administrator. Over the course of my career I moved from System Administration to Software Development.  \nI architected and designed a User Interface and Infrastructure Software for system administrators to manage every aspect of our Linux based Grid/Cloud Computing platform, using HTML5/CSS/Javascript and Mod-Perl.  \nBuilt a Model View Controller framework in Mod-Perl for the Grid/Cloud Computing Platform.  \nI also worked for a short time on Acxiom's consumer data portal at http://aboutthedata.com",
            "endDate": {
                "month": "February",
                "year": 2014
            },
            "organization": "Acxiom",
            "startDate": {
                "month": "February",
                "year": 2001
            },
            "title": "Senior Software Developer",
            "website": "http://acxiom.com"
        },
        {
            "current": false,
            "description": "I was system administrator over a local area network in the Physical plant building. This consisted of Windows PCs and Linux and Novell servers.",
            "endDate": {
                "year": 2000
            },
            "organization": "University of Arkansas at Little Rock",
            "startDate": {
                "year": 1998
            },
            "title": "System/Network Administrator",
            "website": "http://ualr.edu"
        },
        {
            "current": false,
            "description": "I managed Novell and Linux servers, and did PC and network maintenance and installation. I also did technical support for the teachers and staff.",
            "endDate": {
                "year": 1998
            },
            "organization": "Bryant School District",
            "startDate": {
                "year": 1997
            },
            "title": "Technical Support Tech",
            "website": "http://bryantschools.org"
        }
    ],
    "interests": [],
    "references": [],
    "skills": [
        {
            "description": "Javascript Object Notation",
            "name": "JSON",
            "type": "Programming Language"
        },
        {
            "description": "Hyper Text Markup Language",
            "name": "HTML5",
            "type": "Markup Language"
        },
        {
            "description": "Cascading Style Sheets",
            "name": "CSS3",
            "type": "Style Sheets"
        },
        {
            "description": "Less CSS Preprocessor",
            "name": "LessCSS",
            "type": "Toolkit"
        },
        {
            "description": "Javascript/ECMAScript",
            "name": "Javascript",
            "type": "Programming Language"
        },
        {
            "description": "Perl Programming Language",
            "name": "Perl",
            "type": "Programming Language"
        },
        {
            "description": "C/C++ Programming Language",
            "name": "C/C++",
            "type": "Programming Language"
        },
        {
            "description": "Java Programming Language",
            "name": "Java",
            "type": "Programming Language"
        },
        {
            "description": "Python Programming Language",
            "name": "Python",
            "type": "Programming Language"
        },
        {
            "description": "MySQL Database",
            "name": "MySQL",
            "type": "Database"
        },
        {
            "name":"SOAP and REST",
            "description": "Web Services and Service Oriented Architecture",
            "type":"Web Techonology"
        },
        {
            "name":"Javascript Libraries and Features",
            "description": "jQuery, YUI, Prototype, Handlebars, Require.js, Promises",
            "type":"APIs"
        },
        {
            "name":"Objective-C and Cocoa",
            "description":"iOS and OS X Application Programming",
            "type":"Programming Language"
        }
    ]
}